d3mIndex,log_radon
5,1.082746158549991
23,1.082746158549991
30,1.082746158549991
31,1.082746158549991
33,1.082746158549991
39,1.082746158549991
44,0.498441397922218
49,1.082746158549991
54,1.082746158549991
60,1.4708075930247637
63,0.8865028323969906
65,0.8865028323969906
66,1.4708075930247637
67,1.4708075930247637
70,1.4708075930247637
72,1.4708075930247637
76,1.4708075930247637
77,1.4708075930247637
78,0.8865028323969906
82,0.8865028323969906
86,1.4708075930247637
96,1.4708075930247637
97,1.4708075930247637
107,1.4708075930247637
109,1.4708075930247637
110,1.4708075930247637
120,1.4708075930247637
136,0.8865028323969906
137,1.4708075930247637
139,1.4708075930247637
141,1.4708075930247637
165,1.4708075930247637
168,1.4708075930247637
174,1.4708075930247637
192,1.4708075930247637
198,1.4708075930247637
208,1.4708075930247637
209,1.4708075930247637
210,1.4708075930247637
213,1.4708075930247637
215,1.4708075930247637
218,1.4708075930247637
227,1.4708075930247637
231,1.4708075930247637
235,1.4708075930247637
239,0.8865028323969906
244,1.4708075930247637
250,1.4708075930247637
254,1.4708075930247637
259,1.4708075930247637
261,1.4708075930247637
265,1.4708075930247637
266,0.8865028323969906
275,1.4708075930247637
281,1.4708075930247637
286,1.4708075930247637
290,0.8865028323969906
296,1.4708075930247637
299,1.4708075930247637
300,1.4708075930247637
305,1.4708075930247637
306,1.4708075930247637
309,1.4708075930247637
311,0.8865028323969906
314,1.4708075930247637
321,1.4708075930247637
323,1.4708075930247637
326,1.4708075930247637
331,1.4708075930247637
332,1.4708075930247637
333,1.4708075930247637
334,1.4708075930247637
344,0.8865028323969906
350,0.8865028323969906
351,1.4708075930247637
357,1.4708075930247637
359,1.4708075930247637
360,1.4708075930247637
365,1.4708075930247637
377,1.4708075930247637
380,1.4708075930247637
381,1.4708075930247637
394,1.4708075930247637
408,0.8865028323969906
416,0.8865028323969906
417,0.8865028323969906
429,0.8865028323969906
430,1.4708075930247637
433,0.8865028323969906
436,1.4708075930247637
439,1.4708075930247637
440,0.8865028323969906
448,1.4708075930247637
464,1.4708075930247637
468,1.4708075930247637
483,1.4708075930247637
486,1.4708075930247637
490,1.4708075930247637
493,1.4708075930247637
497,1.4708075930247637
501,1.4708075930247637
514,1.4708075930247637
523,1.4708075930247637
526,1.4708075930247637
527,1.4708075930247637
530,1.4708075930247637
533,1.4708075930247637
536,1.4708075930247637
539,1.4708075930247637
542,1.4708075930247637
545,1.4708075930247637
549,1.4708075930247637
551,1.4708075930247637
552,0.8865028323969906
554,1.4708075930247637
558,1.4708075930247637
584,1.4708075930247637
585,1.4708075930247637
591,1.4708075930247637
594,1.4708075930247637
595,1.4708075930247637
597,1.4708075930247637
598,1.4708075930247637
599,1.4708075930247637
601,1.4708075930247637
611,1.4708075930247637
616,1.4708075930247637
617,1.4708075930247637
633,0.8865028323969906
635,0.8865028323969906
638,1.4708075930247637
655,1.4708075930247637
656,1.4708075930247637
666,0.9877572397703864
668,0.9877572397703864
669,0.9877572397703864
680,0.9877572397703864
685,0.9877572397703864
687,0.9877572397703864
688,0.4034524791426135
703,0.9877572397703864
704,0.9877572397703864
706,0.9877572397703864
708,0.9877572397703864
710,0.9877572397703864
714,0.9877572397703864
715,0.9877572397703864
723,0.9877572397703864
734,0.9877572397703864
739,0.9877572397703864
745,0.9877572397703864
753,0.9877572397703864
755,0.9877572397703864
759,0.9877572397703864
760,0.4034524791426135
767,0.9877572397703864
788,1.4708075930247637
790,1.4708075930247637
793,1.4708075930247637
794,1.4708075930247637
795,1.4708075930247637
798,1.4708075930247637
808,1.4708075930247637
809,1.4708075930247637
814,1.4708075930247637
817,1.4708075930247637
823,1.4708075930247637
827,1.4708075930247637
834,0.8865028323969906
848,1.4708075930247637
862,1.4708075930247637
864,1.4708075930247637
869,1.4708075930247637
872,1.4708075930247637
879,1.4708075930247637
880,1.4708075930247637
882,1.4708075930247637
893,1.4708075930247637
897,0.8865028323969906
904,1.4708075930247637
908,1.4708075930247637
913,1.4708075930247637
914,1.4708075930247637
