d3mIndex,sentiment
0,0
1,1
2,1
3,1
4,1
5,1
6,1
7,1
8,1
9,2
10,1
11,1
12,1
13,1
14,1
15,1
16,1
17,1
18,1
19,1
20,1
21,1
22,1
23,0
24,1
25,1
26,1
27,1
28,3
29,1
30,1
31,3
32,1
33,1
34,1
35,0
36,0
37,0
38,1
39,0
40,1
41,1
42,2
43,1
44,1
45,1
46,1
47,1
48,1
49,1
50,1
51,0
52,1
53,1
54,1
55,1
56,1
57,1
58,1
59,1
60,1
61,1
62,1
63,1
64,1
65,0
66,1
67,1
68,1
69,1
70,1
71,1
72,1
73,1
74,1
75,2
76,1
77,1
78,1
79,1
80,1
81,1
82,1
83,1
84,3
85,1
86,1
87,1
88,1
89,1
90,1
91,1
92,1
93,1
94,1
95,1
96,1
97,1
98,1
99,2
100,1
101,1
102,1
103,1
104,1
105,1
106,0
107,0
108,1
109,1
110,1
111,1
112,1
113,1
114,0
115,2
116,1
117,1
118,1
119,1
120,1
121,1
122,1
123,1
124,2
125,1
126,3
127,2
128,2
129,1
130,1
131,2
132,1
133,1
134,1
135,0
136,1
137,1
138,0
139,1
140,1
141,1
142,1
143,0
144,1
145,0
146,1
147,1
148,1
149,1
150,1
151,1
152,1
153,3
154,1
155,2
156,1
157,1
158,1
159,1
160,1
161,1
162,1
163,1
164,1
165,0
166,1
167,1
168,0
169,1
170,1
171,1
172,1
173,1
174,1
175,1
176,1
177,0
178,1
179,1
180,1
181,0
182,1
183,1
184,1
185,1
186,1
187,1
188,1
189,1
